McMaster Commuting Dataset (long format). — mc_commute_long • discrtr
…
    Source

    Whalen, K. E., P\'aez, A., & Carrasco, J. A. (2013). Mode choice of university students commuting to school and the role of active travel. Journal of Transport Geography, 31, 132-142. (https://doi.org/10.1016/j.jtrangeo.2013.06.008)

    Examples

 data(mc_commute_long)
 library(dfidx)
#> 
#> Attaching package: ‘dfidx’
#> The following object is masked from ‘package:stats’:
#> 
#>     filter
 print(mc_commute_long, n = 12)
#> # A tibble: 5,500 × 62
#>         id choice parking vehind gender   age shared family child street_density
#>  *   <dbl> <lgl>  <fct>   <fct>  <chr>  <dbl> <fct>  <fct>  <fct>          <dbl>
#>  1  5.67e8 FALSE  No      No     Man       21 Livin… No     No              14.4
#>  2  5.67e8 FALSE  No      No     Man       21 Livin… No     No              14.4
#>  3  5.67e8 TRUE   No      No     Man       21 Livin… No     No              14.4
#>  4  5.67e8 FALSE  No      No     Man       21 Livin… No     No              14.4
#>  5  5.67e8 FALSE  No      Yes    Man       23 No     No     No              19.5
#>  6  5.67e8 FALSE  No      Yes    Man       23 No     No     No              19.5
#>  7  5.67e8 TRUE   No      Yes    Man       23 No     No     No              19.5
#>  8  5.67e8 FALSE  No      Yes    Man       23 No     No     No              19.5
#>  9  5.67e8 FALSE  No      No     Man       20 No     Livin… No              13.6
#> 10  5.67e8 FALSE  No      No     Man       20 No     Livin… No              13.6
#> 11  5.67e8 TRUE   No      No     Man       20 No     Livin… No              13.6
#> 12  5.67e8 FALSE  No      No     Man       20 No     Livin… No              13.6
#> # … with 5,488 more rows, and 52 more variables: sidewalk_density <dbl>,
#> #   LAT <dbl>, LONG <dbl>, PersonalVehComf_SD <dbl>, PersonalVehComf_D <dbl>,
#> #   PersonalVehComf_A <dbl>, PersonalVehComf_SA <dbl>, Fun_SD <dbl>,
#> #   Fun_D <dbl>, Fun_A <dbl>, Fun_SA <dbl>, ActiveNeigh_SD <dbl>,
#> #   ActiveNeigh_D <dbl>, ActiveNeigh_A <dbl>, ActiveNeigh_SA <dbl>,
#> #   UsefulTrans_SD <dbl>, UsefulTrans_D <dbl>, UsefulTrans_A <dbl>,
#> #   UsefulTrans_SA <dbl>, BusComf_SD <dbl>, BusComf_D <dbl>, BusComf_A <dbl>, …
…
